<?xml version="1.0" encoding="UTF-8" standalone="no"?>
<!DOCTYPE svg PUBLIC "-//W3C//DTD SVG 1.1//EN" "http://www.w3.org/Graphics/SVG/1.1/DTD/svg11.dtd">
<svg width="100%" height="100%" viewBox="0 0 512 262" version="1.1" xmlns="http://www.w3.org/2000/svg" xmlns:xlink="http://www.w3.org/1999/xlink" xml:space="preserve" xmlns:serif="http://www.serif.com/" style="fill-rule:evenodd;clip-rule:evenodd;stroke-linecap:round;stroke-linejoin:round;stroke-miterlimit:1.5;">
    <g transform="matrix(1,0,0,1,-85.2234,-89.2377)">
        <g transform="matrix(5.07377e-17,-0.828609,0.828609,5.07377e-17,-139.376,431.35)">
            <g transform="matrix(0.580836,0,0,1,110.259,-2.84217e-14)">
                <path d="M263.045,303.408L359.965,303.408" style="fill:none;stroke:black;stroke-width:1.48px;"/>
            </g>
            <g transform="matrix(1.37129,0,0,1,-97.6666,0)">
                <path d="M263.045,303.408L280.277,294.846" style="fill:none;stroke:black;stroke-width:1.01px;"/>
            </g>
            <g transform="matrix(1.37129,4.54702e-17,-4.54702e-17,-1,-97.6666,606.815)">
                <path d="M263.045,303.408L280.277,294.846" style="fill:none;stroke:black;stroke-width:1.01px;"/>
            </g>
        </g>
        <g transform="matrix(5.07377e-17,0.828609,0.828609,-5.07377e-17,-0.533874,37.744)">
            <g transform="matrix(0.580836,0,0,1,110.259,-2.84217e-14)">
                <path d="M263.045,303.408L359.965,303.408" style="fill:none;stroke:black;stroke-width:1.48px;"/>
            </g>
            <g transform="matrix(1.37129,0,0,1,-97.6666,0)">
                <path d="M263.045,303.408L280.277,294.846" style="fill:none;stroke:black;stroke-width:1.01px;"/>
            </g>
            <g transform="matrix(1.37129,4.54702e-17,-4.54702e-17,-1,-97.6666,606.815)">
                <path d="M263.045,303.408L280.277,294.846" style="fill:none;stroke:black;stroke-width:1.01px;"/>
            </g>
        </g>
        <g transform="matrix(1,0,0,1,40.5321,99.3628)">
            <text x="43.267px" y="19.701px" style="font-family:'ArialMT', 'Arial', sans-serif;font-size:41.667px;">Name der Funktion,</text>
            <text x="43.267px" y="62.731px" style="font-family:'ArialMT', 'Arial', sans-serif;font-size:41.667px;">die du aufrufen möchtest</text>
        </g>
        <g transform="matrix(1,0,0,1,38.0907,227.338)">
            <text x="43.267px" y="19.701px" style="font-family:'Menlo-Regular', 'Menlo', monospace;font-size:41.667px;fill:rgb(139,64,191);">print</text>
            <text x="168.694px" y="19.701px" style="font-family:'Menlo-Regular', 'Menlo', monospace;font-size:41.667px;">(</text>
            <text x="193.78px" y="19.701px" style="font-family:'Menlo-Regular', 'Menlo', monospace;font-size:41.667px;fill:rgb(87,51,204);">&quot;hello world&quot;</text>
            <text x="519.891px" y="19.701px" style="font-family:'Menlo-Regular', 'Menlo', monospace;font-size:41.667px;">)</text>
        </g>
        <g transform="matrix(1,0,0,1,197.093,322.639)">
            <text x="43.267px" y="19.701px" style="font-family:'ArialMT', 'Arial', sans-serif;font-size:41.667px;">Funktionsargument</text>
        </g>
    </g>
</svg>
